{
    "nombreApp" : "Componentes",
    "rutas" : [
        {
            "ruta" : "alert",
            "icon" : "add_alert",
            "texto" : "Alertas"
        },
        {
            "ruta" : "avatar",
            "icon" : "accessibility",
            "texto" : "Avatars"
        },
        {
            "ruta" : "card",
            "icon" : "folder_open",
            "texto" : "Cards - Tarjetas"
        },
        {
            "ruta" : "animated",
            "icon" : "donut_large",
            "texto" : "Animated Container"
        },
        {
            "ruta" : "inputs",
            "icon" : "input",
            "texto" : "Inputs"
        },
        {
            "ruta" : "slider",
            "icon" : "sort",
            "texto" : "Slider - Checks"
        },
        {
            "ruta" : "listas",
            "icon" : "format_list_bulleted",
            "texto" : "Listas y Scroll"
        }
    ]
}
